^C:\USERS\USER\DOCUMENTS\VISUAL STUDIO 2013\PROJECTS\HW16_YONIZALCMAN\Q2\SOURCE.CPP
C:\USERS\USER\DOCUMENTS\VISUAL STUDIO 2013\PROJECTS\HW16_YONIZALCMAN\Q2\DEBUG\VC120.PDB
C:\USERS\USER\DOCUMENTS\VISUAL STUDIO 2013\PROJECTS\HW16_YONIZALCMAN\Q2\DEBUG\VC120.IDB
C:\USERS\USER\DOCUMENTS\VISUAL STUDIO 2013\PROJECTS\HW16_YONIZALCMAN\Q2\DEBUG\SOURCE.OBJ
^C:\USERS\USER\DOCUMENTS\VISUAL STUDIO 2013\PROJECTS\HW16_YONIZALCMAN\Q2\SQLITE3.C
C:\USERS\USER\DOCUMENTS\VISUAL STUDIO 2013\PROJECTS\HW16_YONIZALCMAN\Q2\DEBUG\VC120.PDB
C:\USERS\USER\DOCUMENTS\VISUAL STUDIO 2013\PROJECTS\HW16_YONIZALCMAN\Q2\DEBUG\VC120.IDB
C:\USERS\USER\DOCUMENTS\VISUAL STUDIO 2013\PROJECTS\HW16_YONIZALCMAN\Q2\DEBUG\SQLITE3.OBJ
