^C:\USERS\USER\DOCUMENTS\VISUAL STUDIO 2013\PROJECTS\HW16_YONIZALCMAN\HW16_YONIZALCMAN\SOURCE.CPP
C:\USERS\USER\DOCUMENTS\VISUAL STUDIO 2013\PROJECTS\HW16_YONIZALCMAN\HW16_YONIZALCMAN\DEBUG\VC120.PDB
C:\USERS\USER\DOCUMENTS\VISUAL STUDIO 2013\PROJECTS\HW16_YONIZALCMAN\HW16_YONIZALCMAN\DEBUG\VC120.IDB
C:\USERS\USER\DOCUMENTS\VISUAL STUDIO 2013\PROJECTS\HW16_YONIZALCMAN\HW16_YONIZALCMAN\DEBUG\SOURCE.OBJ
^C:\USERS\USER\DOCUMENTS\VISUAL STUDIO 2013\PROJECTS\HW16_YONIZALCMAN\HW16_YONIZALCMAN\SQLITE3.C
C:\USERS\USER\DOCUMENTS\VISUAL STUDIO 2013\PROJECTS\HW16_YONIZALCMAN\HW16_YONIZALCMAN\DEBUG\VC120.PDB
C:\USERS\USER\DOCUMENTS\VISUAL STUDIO 2013\PROJECTS\HW16_YONIZALCMAN\HW16_YONIZALCMAN\DEBUG\VC120.IDB
C:\USERS\USER\DOCUMENTS\VISUAL STUDIO 2013\PROJECTS\HW16_YONIZALCMAN\HW16_YONIZALCMAN\DEBUG\SQLITE3.OBJ
